…
├──────────────┼──────────────┼───────────────┼──────────────────┼────────────────────┼──────────────────────┼────────────────────┼────────────────────┼─────────────────────┼─────────────┤
│ A            │ F            │  377518399.00 │  566065727797.25 │  537759104278.0656 │  559276670892.116819 │ 25.500975103007097 │  38237.15100895854 │  0.0500065745402432 │    14804077 │
│ N            │ F            │    9851614.00 │   14767438399.17 │   14028805792.2114 │   14590490998.366737 │ 25.522448302840946 │  38257.81066008114 │ 0.04997336773765667 │      385998 │
│ N            │ O            │  743124873.00 │ 1114302286901.88 │ 1058580922144.9638 │ 1100937000170.591854 │ 25.498075870689316 │  38233.90292348181 │ 0.05000081182113131 │    29144351 │
│ R            │ F            │  377732830.00 │  566431054976.00 │  538110922664.7677 │  559634780885.086257 │  25.50838478968014 │ 38251.219273559764 │ 0.04999679231408742 │    14808183 │
└──────────────┴──────────────┴───────────────┴──────────────────┴────────────────────┴──────────────────────┴────────────────────┴────────────────────┴─────────────────────┴─────────────┘
Run Time (s): real 1.289 user 1.291270 sys 0.055740
┌─────────┐
│  query  │
│ varchar │
├─────────┤
│ Q2      │
└─────────┘
Run Time (s): real 0.000 user 0.000102 sys 0.000001
┌───────────────┬────────────────────┬────────────────┬───────────┬────────────────┬──────────────────────────────────────────┬─────────────────┬──────────────────────────────────────────────────────────────────────────────────────────────────┐
│   s_acctbal   │       s_name       │     n_name     │ p_partkey │     p_mfgr     │                s_address                 │     s_phone     │                                            s_comment                                             │
│ decimal(15,2) │      varchar       │    varchar     │   int64   │    varchar     │                 varchar                  │     varchar     │                                             varchar                                              │
├───────────────┼────────────────────┼────────────────┼───────────┼────────────────┼──────────────────────────────────────────┼─────────────────┼──────────────────────────────────────────────────────────────────────────────────────────────────┤
│       9994.37 │ Supplier#000030084 │ GERMANY        │    380077 │ Manufacturer#5 │ Lpmw8Ht4rC,xjMQ0p50CkyG7764              │ 17-519-171-6883 │ thely express instructions. regular hockey players was furiously. quickly pendi                  │
│       9992.54 │ Supplier#000099650 │ RUSSIA         │    824625 │ Manufacturer#3 │ u8irlfFJRKkGmndVKa4LY                    │ 32-971-481-2533 │ ironic ideas. special, ironic requests nag blithely. ironic deposits use furiously               │
│       9987.51 │ Supplier#000020657 │ ROMANIA        │    395653 │ Manufacturer#5 │ XBf0Sq7X2xE0ZTakAq Rsq01lutxjWg          │ 29-167-460-7830 │  unusual requests cajole across the fluffily final requests.                                     │
│       9986.40 │ Supplier#000082995 │ RUSSIA         │   1782994 │ Manufacturer#5 │ p3Ipd2Un6pIK2                            │ 32-510-919-3096 │ e packages. slyly unusual ideas use slyly. blithely ironic requests integrate furi               │
│       9984.69 │ Supplier#000008875 │ ROMANIA        │    633856 │ Manufacturer#4 │ K9NcAhAt60 jA                            │ 29-132-904-4395 │  carefully. furiously ironic requests about the care                                             │
│       9984.30 │ Supplier#000081977 │ RUSSIA         │   1356963 │ Manufacturer#5 │ LMEM2XU7iYiU1qySKHCxvp                   │ 32-569-570-6149 │ , pending instructions unwind among                                                              │
│       9983.76 │ Supplier#000024757 │ RUSSIA         │    599751 │ Manufacturer#4 │ xhP0Gm9AvzxXWjV3Ukz9rmh3s06o1            │ 32-868-781-9721 │ regular accounts sleep furiously furiously close notornis. carefully silent foxes arou           │
│       9980.25 │ Supplier#000067392 │ RUSSIA         │    192388 │ Manufacturer#2 │ Dmaw gIXZU1,iT1                          │ 32-872-236-1034 │ to the slyly quick deposits. blithely special accounts boost furi                                │
│       9974.93 │ Supplier#000072260 │ ROMANIA        │    397250 │ Manufacturer#3 │ JH BmpisKGh0AISYAHgyM,AJe4WcXI,TI        │ 29-745-482-4154 │ play furiously according to the slyly unusual packages? slyly express instructions x-ray         │
│       9971.99 │ Supplier#000016715 │ FRANCE         │    691708 │ Manufacturer#2 │ qHmxVVnEedvr5j1                          │ 16-401-454-3384 │ . furiously brave dependencies m                                                                 │
│       9968.96 │ Supplier#000085431 │ ROMANIA        │   1885430 │ Manufacturer#4 │ ,JJ6NvcTq5k                              │ 29-402-887-2528 │ des cajole across the furiously regular accounts; regular foxes haggle quickly across the furio  │
│       9967.60 │ Supplier#000028837 │ ROMANIA        │    228836 │ Manufacturer#2 │ LqQdPou57tmHHJKlCNqgutRxG                │ 29-105-576-2294 │  pinto beans. even accounts cajole abou                                                          │
│       9967.60 │ Supplier#000028837 │ ROMANIA        │   1828836 │ Manufacturer#4 │ LqQdPou57tmHHJKlCNqgutRxG                │ 29-105-576-2294 │  pinto beans. even accounts cajole abou                                                          │
│       9966.67 │ Supplier#000030306 │ UNITED KINGDOM │   1280281 │ Manufacturer#3 │ uYbzF DXpZh942gzOveePcs217MFWCvV9sB      │ 33-758-232-4917 │  pinto beans sleep alongside of                                                                  │
│       9962.57 │ Supplier#000034645 │ ROMANIA        │    759623 │ Manufacturer#4 │ N3YBJpyKHSw5NS6UC42zVPacQuo              │ 29-629-100-1429 │ s wake furiously slyly express excuses. slyly blithe accounts lose a                             │
│       9957.83 │ Supplier#000012588 │ ROMANIA        │     12587 │ Manufacturer#1 │ TO9shduokTtrABLH3gK bzUxPMc7g            │ 29-373-772-7126 │ nstructions. slyly bold forges haggle blithely carefully regular accounts. fluf                  │
│       9956.67 │ Supplier#000074260 │ FRANCE         │    124257 │ Manufacturer#2 │ 5SXrY50BbS lyD5vHcho,QTscW               │ 16-511-538-8136 │ s. furiously unusual theodolites haggle furiously. regular,                                      │
│       9945.36 │ Supplier#000036819 │ ROMANIA        │    761797 │ Manufacturer#4 │ ehLsFCaW7Afny24rH3eRHl8HA8zT1DjvjE6x7    │ 29-370-897-9499 │ ages nag regular, regular accounts. special, special requests use furi                           │
│       9944.02 │ Supplier#000010019 │ ROMANIA        │   1810018 │ Manufacturer#4 │ VLtSIsInE0HovhLRId91z54Mqz fDa8          │ 29-695-919-1392 │ p furiously furiously even asymptotes-- furiously even instructions are                          │
│       9942.90 │ Supplier#000019177 │ GERMANY        │    494172 │ Manufacturer#5 │ 86idM87abnJTncO3xM                       │ 17-316-670-1231 │ packages sublate slyly after the carefully pending reque                                         │
│          ·    │         ·          │    ·           │       ·   │       ·        │         ·                                │        ·        │                            ·                                                                     │
│          ·    │         ·          │    ·           │       ·   │       ·        │         ·                                │        ·        │                            ·                                                                     │
│          ·    │         ·          │    ·           │       ·   │       ·        │         ·                                │        ·        │                            ·                                                                     │
│       9813.27 │ Supplier#000055123 │ ROMANIA        │   1480080 │ Manufacturer#1 │ QnIiustd93PIKICa4Eduov5rgCXPZTZts2W      │ 29-736-401-5608 │  quickly special orbits haggle quietly carefully final braids;                                   │
│       9809.56 │ Supplier#000078281 │ FRANCE         │    778280 │ Manufacturer#4 │ RVseoVKzcWNxW,unkCEBCRmkVqOwY            │ 16-497-471-5554 │  blithely final packages eat care                                                                │
│       9808.25 │ Supplier#000012649 │ ROMANIA        │   1162626 │ Manufacturer#1 │ fN64kCIPh2sxQEmyJwB4tKtstoDr6uGSa2GOoAP6 │ 29-622-551-4334 │ ly. furiously even pinto beans eat slyly agains                                                  │
│       9807.53 │ Supplier#000000437 │ GERMANY        │   1000436 │ Manufacturer#1 │ kxAiG0 gWtpUuVPN0O7Fc lAAqoj2L           │ 17-652-134-3031 │ deposits. carefully silent instructi                                                             │
│       9801.15 │ Supplier#000089681 │ RUSSIA         │   1339654 │ Manufacturer#5 │ vpxtZlvKIV ,fi2DbYA6U2TApyZ1xEcGfexMzp   │ 32-947-140-8833 │ ve the fluffily pending excuses. carefull                                                        │
│       9799.89 │ Supplier#000059082 │ GERMANY        │   1934062 │ Manufacturer#2 │ z rOv  rdWJB                             │ 17-243-631-5701 │ nts hinder slyly along the carefully unusual theodolites. fluffily regular notornis play blithel │
│       9793.99 │ Supplier#000020982 │ ROMANIA        │    170979 │ Manufacturer#4 │  h18i7FG6TGa3OyBED4cWi3fl                │ 29-164-384-7339 │ lar requests. slyly final theodolites cajole bli                                                 │
│       9793.99 │ Supplier#000020982 │ ROMANIA        │   1095971 │ Manufacturer#4 │  h18i7FG6TGa3OyBED4cWi3fl                │ 29-164-384-7339 │ lar requests. slyly final theodolites cajole bli                                                 │
│       9789.61 │ Supplier#000034881 │ GERMANY        │    284876 │ Manufacturer#4 │ 6OXnDv,evE0W2q9                          │ 17-237-600-1480 │ ously pending accounts print after the requests. s                                               │
│       9788.73 │ Supplier#000083261 │ FRANCE         │   1258248 │ Manufacturer#4 │ ,MCLWjlWut4ImK P0lOf6T8jL                │ 16-653-115-5484 │ nto beans. quickly pending requests cajole again                                                 │
│       9784.65 │ Supplier#000099527 │ FRANCE         │    624508 │ Manufacturer#4 │ Vr9OKI13Ow0nSvYu2                        │ 16-658-692-3768 │  quickly regular theodolites. regular requests are above the blithely final dependencies. slowly │
│       9777.85 │ Supplier#000044409 │ GERMANY        │   1419394 │ Manufacturer#5 │ JJcXwCQ1Ow3oBCT,KReCTpPbJTv              │ 17-739-859-5666 │ er the carefully express theodolites. carefully ironic deposi                                    │
│       9777.75 │ Supplier#000030124 │ RUSSIA         │    355114 │ Manufacturer#4 │ xa7WyLCrmh9lBKpBBXVy6gZ0BYDSr9x          │ 32-554-818-8924 │ ns wake slyly. quickly silent deposits cajole. slyly final realms cajole furi                    │
│       9777.60 │ Supplier#000039017 │ UNITED KINGDOM │    164013 │ Manufacturer#1 │ i3IznBvWbxzWDP3aHIDPoAFRK6C0EXnouvQ4Mi   │ 33-324-389-9325 │ y up the quickly ironic platelets. blithely                                                      │
│       9777.60 │ Supplier#000039017 │ UNITED KINGDOM │   1188994 │ Manufacturer#3 │ i3IznBvWbxzWDP3aHIDPoAFRK6C0EXnouvQ4Mi   │ 33-324-389-9325 │ y up the quickly ironic platelets. blithely                                                      │
│       9777.37 │ Supplier#000071253 │ GERMANY        │   1496210 │ Manufacturer#1 │ 33BSJiHID92                              │ 17-239-283-7205 │ n deposits. blithely sly deposits across                                                         │
│       9771.20 │ Supplier#000065102 │ UNITED KINGDOM │   1690053 │ Manufacturer#2 │ TPVzdXUjIjjCm6wrLFs yglw Cr              │ 33-225-255-3440 │ ly carefully bold packages. unusual, unusual acc                                                 │
│       9769.57 │ Supplier#000043082 │ UNITED KINGDOM │   1568036 │ Manufacturer#3 │ fMWwvOq,K1FamSxo b                       │ 33-958-753-9986 │ egular deposits. ironic waters dazzle slyly about the blithely special excuses. slyly regu       │
│       9767.32 │ Supplier#000073781 │ FRANCE         │   1823744 │ Manufacturer#4 │ g4fHtF2BDbMZ5uhHpBPQyzCg8Z9B34614pco     │ 16-282-344-5601 │ fter the final ideas. even pinto beans believe. quickly bold accounts use instructions.          │
│       9766.22 │ Supplier#000066352 │ GERMANY        │   1516321 │ Manufacturer#3 │ 2Old wsdnGtLTbsOc,                       │ 17-427-880-3444 │ eposits use fluffily. ironic req                                                                 │
├───────────────┴────────────────────┴────────────────┴───────────┴────────────────┴──────────────────────────────────────────┴─────────────────┴──────────────────────────────────────────────────────────────────────────────────────────────────┤
│ 100 rows (40 shown)                                                                                                                                                                                                                    8 columns │
└──────────────────────────────────────────────────────────────────────────────────────────────────────────────────────────────────────────────────────────────────────────────────────────────────────────────────────────────────────────────────┘
…
│ o_year │      mkt_share      │
│ int64  │       double        │
├────────┼─────────────────────┤
│   1995 │  0.0388201425143322 │
│   1996 │ 0.03948968749183992 │
└────────┴─────────────────────┘
Run Time (s): real 0.760 user 0.748034 sys 0.011575
┌─────────┐
│  query  │
│ varchar │
├─────────┤
│ Q9      │
└─────────┘
Run Time (s): real 0.000 user 0.000092 sys 0.000001
┌────────────────┬────────┬────────────────┐
│     nation     │ o_year │   sum_profit   │
│    varchar     │ int64  │ decimal(38,4)  │
├────────────────┼────────┼────────────────┤
│ ALGERIA        │   1998 │ 271504046.5508 │
│ ALGERIA        │   1997 │ 457035986.9555 │
│ ALGERIA        │   1996 │ 457125199.0414 │
│ ALGERIA        │   1995 │ 460972497.0491 │
│ ALGERIA        │   1994 │ 456444975.7127 │
│ ALGERIA        │   1993 │ 456449926.4138 │
│ ALGERIA        │   1992 │ 459548354.7680 │
│ ARGENTINA      │   1998 │ 277792984.9141 │
│ ARGENTINA      │   1997 │ 467555914.5594 │
│ ARGENTINA      │   1996 │ 473886192.7453 │
│ ARGENTINA      │   1995 │ 468457259.9584 │
│ ARGENTINA      │   1994 │ 467071963.6041 │
│ ARGENTINA      │   1993 │ 469523991.9188 │
│ ARGENTINA      │   1992 │ 471169675.3110 │
│ BRAZIL         │   1998 │ 278153002.0221 │
│ BRAZIL         │   1997 │ 460597231.9522 │
│ BRAZIL         │   1996 │ 465471604.2949 │
│ BRAZIL         │   1995 │ 466391978.0645 │
│ BRAZIL         │   1994 │ 466833690.9775 │
│ BRAZIL         │   1993 │ 458908773.7974 │
│   ·            │     ·  │        ·       │
│   ·            │     ·  │        ·       │
│   ·            │     ·  │        ·       │
│ UNITED KINGDOM │   1997 │ 463575539.6379 │
│ UNITED KINGDOM │   1996 │ 467451217.6874 │
│ UNITED KINGDOM │   1995 │ 465308981.2708 │
│ UNITED KINGDOM │   1994 │ 466317400.9398 │
│ UNITED KINGDOM │   1993 │ 467140902.3099 │
│ UNITED KINGDOM │   1992 │ 464629409.6613 │
│ UNITED STATES  │   1998 │ 271746698.7703 │
│ UNITED STATES  │   1997 │ 466200287.2350 │
│ UNITED STATES  │   1996 │ 466726897.7640 │
│ UNITED STATES  │   1995 │ 470797066.3205 │
│ UNITED STATES  │   1994 │ 476447816.2560 │
│ UNITED STATES  │   1993 │ 460120427.2978 │
│ UNITED STATES  │   1992 │ 468157792.3023 │
│ VIETNAM        │   1998 │ 272979518.3274 │
│ VIETNAM        │   1997 │ 473777590.7684 │
│ VIETNAM        │   1996 │ 466048777.1537 │
│ VIETNAM        │   1995 │ 468658193.1331 │
│ VIETNAM        │   1994 │ 478019622.5095 │
│ VIETNAM        │   1993 │ 469271925.6739 │
│ VIETNAM        │   1992 │ 463962943.8714 │
├────────────────┴────────┴────────────────┤
│ 175 rows (40 shown)            3 columns │
└──────────────────────────────────────────┘
…
│ l_shipmode │ high_line_count │ low_line_count │
│  varchar   │     int128      │     int128     │
├────────────┼─────────────────┼────────────────┤
│ MAIL       │           62071 │          93045 │
│ SHIP       │           62426 │          93261 │
└────────────┴─────────────────┴────────────────┘
Run Time (s): real 0.355 user 0.354361 sys 0.000420
┌─────────┐
│  query  │
│ varchar │
├─────────┤
│ Q13     │
└─────────┘
Run Time (s): real 0.000 user 0.000082 sys 0.000000
┌─────────┬──────────┐
│ c_count │ custdist │
│  int64  │  int64   │
├─────────┼──────────┤
│       0 │   500019 │
│      10 │    66125 │
│       9 │    65012 │
│      11 │    62192 │
│       8 │    58445 │
│      12 │    55784 │
│      13 │    49943 │
│      19 │    46595 │
│       7 │    46529 │
│      18 │    46036 │
│      14 │    45349 │
│      20 │    45327 │
│      17 │    44970 │
│      16 │    43830 │
│      15 │    43808 │
│      21 │    42585 │
│      22 │    38057 │
│       6 │    32772 │
│      23 │    32590 │
│      24 │    26830 │
│       · │       ·  │
│       · │       ·  │
│       · │       ·  │
│      28 │     8196 │
│      29 │     5594 │
│       3 │     3974 │
│      30 │     3748 │
│      31 │     2343 │
│      32 │     1484 │
│       2 │     1216 │
│      33 │      868 │
│      34 │      510 │
│      35 │      254 │
│       1 │      232 │
│      36 │      144 │
│      37 │       83 │
│      38 │       47 │
│      39 │       16 │
│      40 │        9 │
│      41 │        7 │
│      42 │        4 │
│      43 │        3 │
│      46 │        1 │
├─────────┴──────────┤
│ 45 rows (40 shown) │
└────────────────────┘
…
